{
    "KPlugin": {
        "Authors": [
            {
                "Email": "carl@carlschwan.eu",
                "Name": "Carl Schwan",
                "Name[ar]": "Carl Schwan",
                "Name[ca@valencia]": "Carl Schwan",
                "Name[ca]": "Carl Schwan",
                "Name[en_GB]": "Carl Schwan",
                "Name[es]": "Carl Schwan",
                "Name[eu]": "Carl Schwan",
                "Name[fr]": "Carl Schwan",
                "Name[it]": "Carl Schwan",
                "Name[nl]": "Carl Schwan",
                "Name[pt]": "Carl Schwan",
                "Name[ru]": "Carl Schwan",
                "Name[sk]": "Carl Schwan",
                "Name[sl]": "Carl Schwan",
                "Name[tr]": "Carl Schwan",
                "Name[uk]": "Carl Schwan",
                "Name[x-test]": "xxCarl Schwanxx"
            }
        ],
        "Category": "Personal information",
        "Description": "Contact list",
        "Description[ar]": "قائمة المراسلين",
        "Description[ca@valencia]": "Llista de contactes",
        "Description[ca]": "Llista de contactes",
        "Description[en_GB]": "Contact list",
        "Description[es]": "Lista de contactos",
        "Description[eu]": "Kontaktuen zerrenda",
        "Description[fr]": "Liste de contacts",
        "Description[it]": "Elenco dei contatti",
        "Description[nl]": "Contactenlijst",
        "Description[pt]": "Lista de contactos",
        "Description[ru]": "Список контактов",
        "Description[sk]": "Zoznam kontaktov",
        "Description[sl]": "Seznam stikov",
        "Description[tr]": "Kişi listesi",
        "Description[uk]": "Список контактів",
        "Description[x-test]": "xxContact listxx",
        "EnabledByDefault": true,
        "FormFactors": [
            "desktop"
        ],
        "Icon": "im-user",
        "Id": "org.kde.kalendar.contact",
        "License": "GPL-2.0+",
        "Name": "Contact",
        "Name[ar]": "المراسَل",
        "Name[ca@valencia]": "Contact",
        "Name[ca]": "Contact",
        "Name[en_GB]": "Contact",
        "Name[es]": "Contacto",
        "Name[eu]": "Kontaktua",
        "Name[fr]": "Contact",
        "Name[it]": "Contatto",
        "Name[nl]": "Contactpersoon",
        "Name[pt]": "Contacto",
        "Name[ru]": "Контакт",
        "Name[sk]": "Kontakt",
        "Name[sl]": "Stik",
        "Name[tr]": "Kişi",
        "Name[uk]": "Контакт",
        "Name[x-test]": "xxContactxx",
        "ServiceTypes": [
            "Plasma/Applet"
        ],
        "Version": "1.0.0",
        "Website": "https://apps.kde.org/kalendar"
    },
    "X-Plasma-API": "declarativeappletscript",
    "X-Plasma-MainScript": "ui/main.qml",
    "X-Plasma-NotificationArea": "true",
    "X-Plasma-NotificationAreaCategory": "PIM"
}
